메이저리그 구장의 변화 시각화
…
##   See gargle's "Non-interactive auth" vignette for more details:

##   <]8;;https://gargle.r-lib.org/articles/non-interactive-auth.htmlhttps://gargle.r-lib.org/articles/non-interactive-auth.html]8;;>

## i The googlesheets4 package is using a cached token for ']8;;mailto:pancake15@snu.ac.krpancake15@snu.ac.kr]8;;'.

## v Reading from "ballparklist_mlb".

## v Range '시트1'.

as_tibble(mlbpark)

## # A tibble: 30 x 11
##    Name  Capac~1 Locat~2 Surface Team  Opened Dista~3 Type  Rooft~4   Cost url  
##    <chr> <list>  <chr>   <chr>   <chr> <list> <chr>   <chr> <chr>    <dbl> <chr>
##  1 Amer~ <chr>   Milwau~ Grass   Milw~ <dbl>  400 fe~ "Ret~ Retrac~ 400    http~
##  2 Ange~ <chr>   Anahei~ Grass   Los ~ <dbl>  396 fe~ "Mod~ Open     24    http~
##  3 Busc~ <chr>   St. Lo~ Grass   St. ~ <dbl>  400 fe~ "Ret~ Open    365    http~
##  4 Chas~ <chr>   Phoeni~ Artifi~ Ariz~ <dbl>  407 fe~ "Ret~ Retrac~ 354    http~
##  5 Citi~ <chr>   Queens~ Grass   New ~ <dbl>  408 fe~ "Ret~ Open    900    http~
##  6 Citi~ <chr>   Philad~ Grass   Phil~ <dbl>  401 fe~ "Ret~ Open    458    http~
##  7 Come~ <chr>   Detroi~ Grass   Detr~ <dbl>  420 fe~ "Ret~ Open    300    http~
##  8 Coor~ <chr>   Denver~ Grass   Colo~ <dbl>  415 fe~ "Ret~ Open    300    http~
##  9 Dodg~ <chr>   Los An~ Grass   Los ~ <dbl>  395 fe~ "Mod~ Open     23    http~
## 10 Fenw~ <chr>   Boston~ Grass   Bost~ <dbl>  390 fe~ "Jew~ Open      0.65 http~
## # ... with 20 more rows, and abbreviated variable names 1: Capacity,
## #   2: Location, 3: `Distance to center field`, 4: Rooftype
…
n_distinct(mlb_color$`Color 1`)

## [1] 29

mlb_color%>% group_by(`Color 1`) %>%
  summarize(n = n())

## # A tibble: 29 x 2
##    `Color 1`               n
##    <chr>               <int>
##  1 Black #27251F           2
##  2 Blue #002D72            1
##  3 Blue #003087            1
##  4 Blue #003263            1
##  5 Blue #003278            1
##  6 Blue #0E3386            1
##  7 Blue #134A8E            1
##  8 Brown #2F241D           1
##  9 Dodger Blue #005A9C     1
## 10 Green #003831           1
## # ... with 19 more rows
…
## NULL

all_coord <- data.frame() 

for (i in 1:length(urllist)) {
  coordinate <- scrape_coordinate_wiki(urllist[i])
  all_coord <- rbind(all_coord, coordinate)
}

allcoord <- read.csv("./allcoord.csv")
mlb_2 <- left_join(mlb_1, allcoord, by="url")
mlb_2

## # A tibble: 30 x 14
##    Name  Capac~1 Locat~2 Surface Team  Opened Dista~3 Type  Rooft~4   Cost url  
##    <chr>   <int> <chr>   <chr>   <chr>  <dbl> <chr>   <chr> <chr>    <dbl> <chr>
##  1 Amer~   41900 Milwau~ Grass   Milw~   2001 400 fe~ "Ret~ Retrac~ 400    http~
##  2 Ange~   45517 Anahei~ Grass   Los ~   1966 396 fe~ "Mod~ Open     24    http~
##  3 Busc~   45494 St. Lo~ Grass   St. ~   2006 400 fe~ "Ret~ Open    365    http~
##  4 Chas~   48405 Phoeni~ Artifi~ Ariz~   1998 407 fe~ "Ret~ Retrac~ 354    http~
##  5 Citi~   41922 Queens~ Grass   New ~   2009 408 fe~ "Ret~ Open    900    http~
##  6 Citi~   42792 Philad~ Grass   Phil~   2004 401 fe~ "Ret~ Open    458    http~
##  7 Come~   41083 Detroi~ Grass   Detr~   2000 420 fe~ "Ret~ Open    300    http~
##  8 Coor~   50144 Denver~ Grass   Colo~   1995 415 fe~ "Ret~ Open    300    http~
##  9 Dodg~   56000 Los An~ Grass   Los ~   1962 395 fe~ "Mod~ Open     23    http~
## 10 Fenw~   37755 Boston~ Grass   Bost~   1912 390 fe~ "Jew~ Open      0.65 http~
## # ... with 20 more rows, 3 more variables: colorcode <chr>, X <int>,
## #   coor <chr>, and abbreviated variable names 1: Capacity, 2: Location,
## #   3: `Distance to center field`, 4: Rooftype
…
mlb_3$GeographicArea <- paste(mlb_3$Basecity, "city")
mlb_3$GeographicArea[mlb_3$Team=="Washington Nationals"] <- "Washington city, DC"
mlb_3$GeographicArea[mlb_3$Team=="St. Louis Cardinals"] <-  "St. Louis city, MO"
mlb_3$GeographicArea[mlb_3$Basecity=="New York"] <- "New York city, NY"
mlb_3$GeographicArea[mlb_3$Basecity=="Chicago"] <- "Chicago city, IL"
mlb_3$GeographicArea[mlb_3$Basecity=="Cincinnati"] <-  "Cincinnati city, OH"
mlb_3$GeographicArea[mlb_3$Basecity=="Philadelphia"] <- "Philadelphia city, PA"
mlb_3$GeographicArea[mlb_3$Basecity=="Boston"] <- "Boston city, MA"
mlb_3$GeographicArea[mlb_3$Basecity=="Kansas City"] <- "Kansas City city, MO"
mlb_3$GeographicArea[mlb_3$Basecity=="Minneapolis"] <- "Minneapolis city, MN"
mlb_3$GeographicArea[mlb_3$Basecity=="Cleveland"] <- "Cleveland city, OH"
mlb_3

## # A tibble: 30 x 17
##    Name  Capac~1 Locat~2 Surface Team  Opened Dista~3 Type  Rooft~4   Cost url  
##    <chr>   <int> <chr>   <chr>   <chr>  <dbl> <chr>   <chr> <chr>    <dbl> <chr>
##  1 Amer~   41900 Milwau~ Grass   Milw~   2001 400 fe~ "Ret~ Retrac~ 400    http~
##  2 Ange~   45517 Anahei~ Grass   Los ~   1966 396 fe~ "Mod~ Open     24    http~
##  3 Busc~   45494 St. Lo~ Grass   St. ~   2006 400 fe~ "Ret~ Open    365    http~
##  4 Chas~   48405 Phoeni~ Artifi~ Ariz~   1998 407 fe~ "Ret~ Retrac~ 354    http~
##  5 Citi~   41922 Queens~ Grass   New ~   2009 408 fe~ "Ret~ Open    900    http~
##  6 Citi~   42792 Philad~ Grass   Phil~   2004 401 fe~ "Ret~ Open    458    http~
##  7 Come~   41083 Detroi~ Grass   Detr~   2000 420 fe~ "Ret~ Open    300    http~
##  8 Coor~   50144 Denver~ Grass   Colo~   1995 415 fe~ "Ret~ Open    300    http~
##  9 Dodg~   56000 Los An~ Grass   Los ~   1962 395 fe~ "Mod~ Open     23    http~
## 10 Fenw~   37755 Boston~ Grass   Bost~   1912 390 fe~ "Jew~ Open      0.65 http~
## # ... with 20 more rows, 6 more variables: colorcode <chr>, X <int>,
## #   coordY <chr>, coordX <chr>, Basecity <chr>, GeographicArea <chr>, and
## #   abbreviated variable names 1: Capacity, 2: Location,
## #   3: `Distance to center field`, 4: Rooftype

mlb_base <- mlb_3 %>% left_join(cityhall, by="GeographicArea")
mlb_base

## # A tibble: 30 x 20
##    Name  Capac~1 Locat~2 Surface Team  Opened Dista~3 Type  Rooft~4   Cost url  
##    <chr>   <int> <chr>   <chr>   <chr>  <dbl> <chr>   <chr> <chr>    <dbl> <chr>
##  1 Amer~   41900 Milwau~ Grass   Milw~   2001 400 fe~ "Ret~ Retrac~ 400    http~
##  2 Ange~   45517 Anahei~ Grass   Los ~   1966 396 fe~ "Mod~ Open     24    http~
##  3 Busc~   45494 St. Lo~ Grass   St. ~   2006 400 fe~ "Ret~ Open    365    http~
##  4 Chas~   48405 Phoeni~ Artifi~ Ariz~   1998 407 fe~ "Ret~ Retrac~ 354    http~
##  5 Citi~   41922 Queens~ Grass   New ~   2009 408 fe~ "Ret~ Open    900    http~
##  6 Citi~   42792 Philad~ Grass   Phil~   2004 401 fe~ "Ret~ Open    458    http~
##  7 Come~   41083 Detroi~ Grass   Detr~   2000 420 fe~ "Ret~ Open    300    http~
##  8 Coor~   50144 Denver~ Grass   Colo~   1995 415 fe~ "Ret~ Open    300    http~
##  9 Dodg~   56000 Los An~ Grass   Los ~   1962 395 fe~ "Mod~ Open     23    http~
## 10 Fenw~   37755 Boston~ Grass   Bost~   1912 390 fe~ "Jew~ Open      0.65 http~
## # ... with 20 more rows, 9 more variables: colorcode <chr>, X <int>,
## #   coordY <chr>, coordX <chr>, Basecity <chr>, GeographicArea <chr>,
## #   Population2010 <chr>, hallcoordY <chr>, hallcoordX <chr>, and abbreviated
## #   variable names 1: Capacity, 2: Location, 3: `Distance to center field`,
## #   4: Rooftype
…
